<?xml version="1.0" encoding="UTF-8" standalone="no"?>
<!-- Generator: Adobe Illustrator 15.0.2, SVG Export Plug-In . SVG Version: 6.00 Build 0)  -->

<svg
   xmlns:dc="http://purl.org/dc/elements/1.1/"
   xmlns:cc="http://creativecommons.org/ns#"
   xmlns:rdf="http://www.w3.org/1999/02/22-rdf-syntax-ns#"
   xmlns:svg="http://www.w3.org/2000/svg"
   xmlns="http://www.w3.org/2000/svg"
   xmlns:sodipodi="http://sodipodi.sourceforge.net/DTD/sodipodi-0.dtd"
   xmlns:inkscape="http://www.inkscape.org/namespaces/inkscape"
   version="1.1"
   id="Layer_1"
   sodipodi:docname="capture_stop_16C.svg"
   inkscape:version="0.48.2 r9819"
   inkscape:export-filename="/tmp/capture_stop_16.png"
   inkscape:export-xdpi="90"
   inkscape:export-ydpi="90"
   x="0px"
   y="0px"
   width="16px"
   height="16px"
   viewBox="0 0 16 16"
   enable-background="new 0 0 16 16"
   xml:space="preserve"><metadata
   id="metadata3023"><rdf:RDF><cc:Work
       rdf:about=""><dc:format>image/svg+xml</dc:format><dc:type
         rdf:resource="http://purl.org/dc/dcmitype/StillImage" /><dc:title></dc:title></cc:Work></rdf:RDF></metadata><defs
   id="defs3021" />
<sodipodi:namedview
   inkscape:current-layer="Layer_1"
   inkscape:window-width="1420"
   inkscape:window-maximized="0"
   inkscape:window-height="591"
   inkscape:cy="7.5445753"
   inkscape:cx="13.937343"
   inkscape:window-x="0"
   id="namedview23"
   inkscape:window-y="865"
   showgrid="true"
   bordercolor="#666666"
   pagecolor="#ffffff"
   borderopacity="1"
   objecttolerance="10"
   gridtolerance="10"
   guidetolerance="10"
   inkscape:pageopacity="0"
   inkscape:pageshadow="2"
   inkscape:zoom="20.85965">
	
		<inkscape:grid
   type="xygrid"
   enabled="true"
   visible="true"
   spacingx="0.5px"
   spacingy="0.5px"
   empspacing="5"
   snapvisiblegridlinesonly="true"
   id="grid3923">
		</inkscape:grid>
</sodipodi:namedview>
<g
   id="g3011">
	<g
   id="g3013">
		<rect
   x="1"
   y="1"
   fill="#FFFFFF"
   width="14"
   height="14"
   id="rect3015" />
		<path
   fill="#999999"
   d="M14.271,1.729v12.542H1.729V1.729H14.271 M15,1H1v14h14V1L15,1z"
   id="path3017" />
	</g>
	<rect
   x="2.75"
   y="2.75"
   fill="#DC0000"
   width="10.5"
   height="10.5"
   id="rect3019" />
</g>
</svg>