%!PS-Adobe-3.0 EPSF-3.0
%%Creator: inkscape 0.42
%%Pages: 1
%%Orientation: Portrait
%%BoundingBox: 154 459 473 547
%%HiResBoundingBox: 154.69185 459.28818 472.49629 546.25087
%%EndComments
%%Page: 1 1
0 842 translate
0.80000000 -0.80000000 scale
gsave [1.0000000 0.0000000 0.0000000 1.0000000 0.0000000 0.0000000] concat
gsave [0.94790300 0.0000000 0.0000000 1.0549600 0.0000000 0.0000000] concat
gsave
0.0000000 0.0000000 0.0000000 setrgbcolor
newpath
206.96828 405.77407 moveto
213.34328 405.77407 lineto
223.15578 445.21158 lineto
232.93703 405.77407 lineto
240.03078 405.77407 lineto
249.84328 445.21158 lineto
259.62453 405.77407 lineto
266.03078 405.77407 lineto
254.31203 452.43033 lineto
246.37453 452.43033 lineto
236.53078 411.93032 lineto
226.59328 452.43033 lineto
218.65578 452.43033 lineto
206.96828 405.77407 lineto
fill
grestore
gsave
0.0000000 0.0000000 0.0000000 setrgbcolor
newpath
274.37454 405.77407 moveto
280.68704 405.77407 lineto
280.68704 452.43033 lineto
274.37454 452.43033 lineto
274.37454 405.77407 lineto
fill
grestore
gsave
0.0000000 0.0000000 0.0000000 setrgbcolor
newpath
315.37454 430.55533 moveto
316.72868 431.01368 318.04117 431.99285 319.31204 433.49283 curveto
320.60367 434.99284 321.89534 437.05534 323.18704 439.68033 curveto
329.59329 452.43033 lineto
322.81204 452.43033 lineto
316.84329 440.46158 lineto
315.30159 437.33659 313.80159 435.26368 312.34329 434.24283 curveto
310.90576 433.22201 308.93702 432.71160 306.43704 432.71158 curveto
299.56204 432.71158 lineto
299.56204 452.43033 lineto
293.24954 452.43033 lineto
293.24954 405.77407 lineto
307.49954 405.77407 lineto
312.83285 405.77412 316.81201 406.88870 319.43704 409.11782 curveto
322.06200 411.34703 323.37450 414.71161 323.37454 419.21157 curveto
323.37450 422.14911 322.68700 424.58660 321.31204 426.52408 curveto
319.95784 428.46160 317.97867 429.80535 315.37454 430.55533 curveto
299.56204 410.96157 moveto
299.56204 427.52408 lineto
307.49954 427.52408 lineto
310.54118 427.52410 312.83285 426.82618 314.37454 425.43033 curveto
315.93701 424.01369 316.71826 421.94077 316.71829 419.21157 curveto
316.71826 416.48244 315.93701 414.43036 314.37454 413.05532 curveto
312.83285 411.65953 310.54118 410.96161 307.49954 410.96157 curveto
299.56204 410.96157 lineto
fill
grestore
gsave
0.0000000 0.0000000 0.0000000 setrgbcolor
newpath
337.74954 405.77407 moveto
367.24955 405.77407 lineto
367.24955 411.08657 lineto
344.06204 411.08657 lineto
344.06204 424.89908 lineto
366.28080 424.89908 lineto
366.28080 430.21158 lineto
344.06204 430.21158 lineto
344.06204 447.11783 lineto
367.81205 447.11783 lineto
367.81205 452.43033 lineto
337.74954 452.43033 lineto
337.74954 405.77407 lineto
fill
grestore
gsave
0.0000000 0.0000000 0.0000000 setrgbcolor
newpath
410.31205 407.24282 moveto
410.31205 417.11782 lineto
407.74951 415.97203 405.24951 415.10744 402.81205 414.52407 curveto
400.37452 413.94078 398.07244 413.64911 395.90580 413.64907 curveto
393.03077 413.64911 390.90578 414.04495 389.53079 414.83657 curveto
388.15578 415.62828 387.46828 416.85744 387.46829 418.52407 curveto
387.46828 419.77411 387.92661 420.75327 388.84329 421.46157 curveto
389.78078 422.14911 391.46828 422.74285 393.90579 423.24282 curveto
399.03080 424.27408 lineto
404.21826 425.31577 407.90576 426.89910 410.09330 429.02408 curveto
412.28076 431.14910 413.37451 434.16993 413.37455 438.08658 curveto
413.37451 443.23242 411.84326 447.06575 408.78080 449.58658 curveto
405.73910 452.08658 401.08285 453.33658 394.81204 453.33658 curveto
391.85369 453.33658 388.88494 453.05533 385.90579 452.49283 curveto
382.92662 451.93033 379.94745 451.09700 376.96829 449.99283 curveto
376.96829 439.83658 lineto
379.94745 441.41992 382.82245 442.61784 385.59329 443.43033 curveto
388.38494 444.22200 391.07244 444.61784 393.65579 444.61783 curveto
396.28077 444.61784 398.29119 444.18034 399.68705 443.30533 curveto
401.08285 442.43034 401.78077 441.18034 401.78080 439.55533 curveto
401.78077 438.09701 401.30160 436.97201 400.34330 436.18033 curveto
399.40577 435.38868 397.52035 434.68034 394.68704 434.05533 curveto
390.03079 433.02408 lineto
385.36411 432.02410 381.94745 430.43035 379.78079 428.24283 curveto
377.63495 426.05535 376.56204 423.10744 376.56204 419.39907 curveto
376.56204 414.75328 378.06204 411.18036 381.06204 408.68032 curveto
384.06203 406.18037 388.37453 404.93037 393.99954 404.93032 curveto
396.56202 404.93037 399.19743 405.12829 401.90580 405.52407 curveto
404.61410 405.89912 407.41618 406.47204 410.31205 407.24282 curveto
fill
grestore
gsave
0.0000000 0.0000000 0.0000000 setrgbcolor
newpath
423.96829 405.77407 moveto
435.99954 405.77407 lineto
435.99954 423.55532 lineto
453.74955 423.55532 lineto
453.74955 405.77407 lineto
465.78080 405.77407 lineto
465.78080 452.43033 lineto
453.74955 452.43033 lineto
453.74955 432.64908 lineto
435.99954 432.64908 lineto
435.99954 452.43033 lineto
423.96829 452.43033 lineto
423.96829 405.77407 lineto
fill
grestore
gsave
0.0000000 0.0000000 0.0000000 setrgbcolor
newpath
505.90581 443.93033 moveto
487.09331 443.93033 lineto
484.12456 452.43033 lineto
472.03081 452.43033 lineto
489.31206 405.77407 lineto
503.65581 405.77407 lineto
520.93706 452.43033 lineto
508.84331 452.43033 lineto
505.90581 443.93033 lineto
490.09331 435.27408 moveto
502.87456 435.27408 lineto
496.49956 416.71157 lineto
490.09331 435.27408 lineto
fill
grestore
gsave
0.0000000 0.0000000 0.0000000 setrgbcolor
newpath
544.18706 426.46158 moveto
546.70787 426.46160 548.50995 425.99285 549.59331 425.05533 curveto
550.69745 424.11785 551.24953 422.57619 551.24956 420.43032 curveto
551.24953 418.30536 550.69745 416.78453 549.59331 415.86782 curveto
548.50995 414.95119 546.70787 414.49286 544.18706 414.49282 curveto
539.12456 414.49282 lineto
539.12456 426.46158 lineto
544.18706 426.46158 lineto
539.12456 434.77408 moveto
539.12456 452.43033 lineto
527.09331 452.43033 lineto
527.09331 405.77407 lineto
545.46831 405.77407 lineto
551.61411 405.77412 556.11411 406.80537 558.96831 408.86782 curveto
561.84327 410.93036 563.28077 414.19078 563.28081 418.64907 curveto
563.28077 421.73244 562.53077 424.26369 561.03081 426.24283 curveto
559.55161 428.22202 557.31203 429.68035 554.31206 430.61783 curveto
555.95786 430.99285 557.42661 431.84701 558.71831 433.18033 curveto
560.03077 434.49284 561.35369 436.49284 562.68706 439.18033 curveto
569.21831 452.43033 lineto
556.40581 452.43033 lineto
550.71831 440.83658 lineto
549.57245 438.50326 548.40578 436.90951 547.21831 436.05533 curveto
546.05162 435.20118 544.48912 434.77409 542.53081 434.77408 curveto
539.12456 434.77408 lineto
fill
grestore
gsave
0.0000000 0.0000000 0.0000000 setrgbcolor
newpath
576.34331 405.77407 moveto
588.37456 405.77407 lineto
588.37456 422.80532 lineto
605.71831 405.77407 lineto
619.68706 405.77407 lineto
597.21831 427.86783 lineto
621.99956 452.43033 lineto
606.93706 452.43033 lineto
588.37456 434.05533 lineto
588.37456 452.43033 lineto
576.34331 452.43033 lineto
576.34331 405.77407 lineto
fill
grestore
grestore
0.0000000 0.0000000 0.0000000 setrgbcolor
[] 0 setdash
4.2972369 setlinewidth
1 setlinejoin
0 setlinecap
newpath
195.51343 420.14613 moveto
352.44720 420.14613 lineto
352.44720 420.14613 356.51830 372.36090 398.58648 371.69721 curveto
385.01611 392.93509 397.78858 420.21356 397.78858 420.21356 curveto
588.47175 420.21356 lineto
stroke
grestore
showpage
