<?xml version="1.0" encoding="utf-8"?>
<!-- Generator: Adobe Illustrator 15.0.2, SVG Export Plug-In . SVG Version: 6.00 Build 0)  -->
<!DOCTYPE svg PUBLIC "-//W3C//DTD SVG 1.1//EN" "http://www.w3.org/Graphics/SVG/1.1/DTD/svg11.dtd">
<svg version="1.1" id="Layer_1" xmlns="http://www.w3.org/2000/svg" xmlns:xlink="http://www.w3.org/1999/xlink" x="0px" y="0px"
	 width="24px" height="24px" viewBox="0 0 24 24" enable-background="new 0 0 24 24" xml:space="preserve">
<g>
	<circle fill="#999999" cx="12" cy="12" r="12"/>
	<circle fill="#4D4D4D" cx="11.9" cy="12.005" r="10.476"/>
	<g>
		<g>
			<g>
				
					<image overflow="visible" opacity="0.2" width="9" height="16" xlink:href="data:image/png;base64,iVBORw0KGgoAAAANSUhEUgAAAAoAAAARCAYAAADkIz3lAAAACXBIWXMAAAsSAAALEgHS3X78AAAA
GXRFWHRTb2Z0d2FyZQBBZG9iZSBJbWFnZVJlYWR5ccllPAAAAJFJREFUeNpiZEAFjEjs/9gkmIGY
B4i5oey/QPwViL9A2WBBEOADYkMgdgFiCyBWhYq/A+KfIAYL1FRuqMJwIJYE4udQhbeA+BPIGSxI
VoNMlQJiGahmPiQbGZhweASDz8RAJBi2Cv+jyaHwYQH+FxoDz6AKnkP5f5EV/ocmgPNI8f4Jyv8K
M5no1MNIbHoECDAAqo0g12ktPFoAAAAASUVORK5CYII=" transform="matrix(1 0 0 1 5.4351 4.4351)">
				</image>
				<g>
					<rect x="7.741" y="6.56" fill="#FFFFFF" width="3.274" height="10.879"/>
				</g>
			</g>
			<g>
				
					<image overflow="visible" opacity="0.2" width="8" height="16" xlink:href="data:image/png;base64,iVBORw0KGgoAAAANSUhEUgAAAAkAAAARCAYAAAAPFIbmAAAACXBIWXMAAAsSAAALEgHS3X78AAAA
GXRFWHRTb2Z0d2FyZQBBZG9iZSBJbWFnZVJlYWR5ccllPAAAAJBJREFUeNpiZEAARiT2fwY0CWYg
5gFibij7LxB/BeIvUDZYkBeIjYDYBYgtgFgVasA7IP4JYrBATTAE4nAglgTi51BFt4D4E8hqFqhC
PiCWAmIZqBP4oLaAARMWR2PwmRiIAENe0X80cRQ+KCD/QEP2GVTyOZT/F1kRKDLPQ/l8UAXnoeL/
iU4FjMSkJ4AAAwDBVx/XouCUdwAAAABJRU5ErkJggg==" transform="matrix(1 0 0 1 11.4351 4.4351)">
				</image>
				<g>
					<rect x="13.025" y="6.56" fill="#FFFFFF" width="3.272" height="10.879"/>
				</g>
			</g>
			<path fill="#FFFFFF" d="M11.996,1.144C6.01,1.144,1.14,6.013,1.14,11.999c0,5.987,4.87,10.856,10.856,10.856
				s10.856-4.869,10.856-10.856C22.853,6.013,17.982,1.144,11.996,1.144z M11.996,20.936c-4.927,0-8.935-4.01-8.935-8.937
				s4.008-8.935,8.935-8.935s8.935,4.008,8.935,8.935S16.923,20.936,11.996,20.936z"/>
		</g>
	</g>
</g>
</svg>
