<?xml version="1.0" encoding="UTF-8" standalone="no"?>
<!-- Created with Inkscape (http://www.inkscape.org/) -->

<svg
   xmlns:dc="http://purl.org/dc/elements/1.1/"
   xmlns:cc="http://creativecommons.org/ns#"
   xmlns:rdf="http://www.w3.org/1999/02/22-rdf-syntax-ns#"
   xmlns:svg="http://www.w3.org/2000/svg"
   xmlns="http://www.w3.org/2000/svg"
   xmlns:xlink="http://www.w3.org/1999/xlink"
   xmlns:sodipodi="http://sodipodi.sourceforge.net/DTD/sodipodi-0.dtd"
   xmlns:inkscape="http://www.inkscape.org/namespaces/inkscape"
   width="24"
   height="24"
   id="svg2"
   version="1.1"
   inkscape:version="0.48.2 r9819"
   sodipodi:docname="go-jump.svg"
   inkscape:export-filename="go-jump.png"
   inkscape:export-xdpi="90"
   inkscape:export-ydpi="90">
  <defs
     id="defs4">
    <linearGradient
       id="linearGradient3835">
      <stop
         style="stop-color:#000000;stop-opacity:0.15686275;"
         offset="0"
         id="stop3837" />
      <stop
         id="stop3855"
         offset="1"
         style="stop-color:#000000;stop-opacity:0;" />
    </linearGradient>
    <linearGradient
       inkscape:collect="always"
       xlink:href="#linearGradient3857"
       id="linearGradient3024"
       gradientUnits="userSpaceOnUse"
       gradientTransform="matrix(-1,0,0,1,10.995535,-6)"
       x1="-4"
       y1="1040.3622"
       x2="-4"
       y2="1046.3622" />
    <linearGradient
       id="linearGradient3857">
      <stop
         id="stop3859"
         offset="0"
         style="stop-color:#ffffff;stop-opacity:0.15686275;" />
      <stop
         id="stop3863"
         offset="1"
         style="stop-color:#ffffff;stop-opacity:0;" />
    </linearGradient>
    <linearGradient
       id="linearGradient4100">
      <stop
         style="stop-color:#ffffff;stop-opacity:0.15753424;"
         offset="0"
         id="stop4102" />
      <stop
         style="stop-color:#ffffff;stop-opacity:0;"
         offset="1"
         id="stop4104" />
    </linearGradient>
    <linearGradient
       inkscape:collect="always"
       xlink:href="#linearGradient4084"
       id="linearGradient4108"
       gradientUnits="userSpaceOnUse"
       x1="11"
       y1="1049.3622"
       x2="11"
       y2="1042.3622"
       gradientTransform="translate(0.99999997,3)" />
    <linearGradient
       id="linearGradient4084">
      <stop
         style="stop-color:#000000;stop-opacity:0.15753424;"
         offset="0"
         id="stop4086" />
      <stop
         style="stop-color:#000000;stop-opacity:0;"
         offset="1"
         id="stop4088" />
    </linearGradient>
    <linearGradient
       id="linearGradient4208">
      <stop
         style="stop-color:#000000;stop-opacity:0.15753424;"
         offset="0"
         id="stop4210" />
      <stop
         style="stop-color:#000000;stop-opacity:0;"
         offset="1"
         id="stop4212" />
    </linearGradient>
    <linearGradient
       inkscape:collect="always"
       xlink:href="#linearGradient4084"
       id="linearGradient3105"
       gradientUnits="userSpaceOnUse"
       gradientTransform="matrix(0,-1,1,0,-1036.8622,1042.8622)"
       x1="11"
       y1="1049.3622"
       x2="11"
       y2="1042.3622" />
    <linearGradient
       inkscape:collect="always"
       xlink:href="#linearGradient4100"
       id="linearGradient3116"
       gradientUnits="userSpaceOnUse"
       gradientTransform="matrix(0,-1,1,0,4.9993325,1053.3622)"
       x1="12"
       y1="6"
       x2="12"
       y2="14" />
    <linearGradient
       inkscape:collect="always"
       xlink:href="#linearGradient4084"
       id="linearGradient3118"
       gradientUnits="userSpaceOnUse"
       gradientTransform="matrix(0,-1,1,0,-7.0006675,1047.3622)"
       x1="14"
       y1="21"
       x2="14"
       y2="14" />
    <linearGradient
       inkscape:collect="always"
       xlink:href="#linearGradient4084"
       id="linearGradient3120"
       gradientUnits="userSpaceOnUse"
       gradientTransform="matrix(0,-1,1,0,-1035.3622,1047.3622)"
       x1="11"
       y1="1049.3622"
       x2="11"
       y2="1042.3622" />
  </defs>
  <sodipodi:namedview
     id="base"
     pagecolor="#ffffff"
     bordercolor="#666666"
     borderopacity="1.0"
     inkscape:pageopacity="0.0"
     inkscape:pageshadow="2"
     inkscape:zoom="23.291667"
     inkscape:cx="13.241778"
     inkscape:cy="12"
     inkscape:document-units="px"
     inkscape:current-layer="layer1"
     showgrid="true"
     inkscape:window-width="1214"
     inkscape:window-height="763"
     inkscape:window-x="322"
     inkscape:window-y="155"
     inkscape:window-maximized="0">
    <inkscape:grid
       type="xygrid"
       id="grid2985"
       empspacing="4"
       visible="true"
       enabled="true"
       snapvisiblegridlinesonly="true" />
  </sodipodi:namedview>
  <metadata
     id="metadata7">
    <rdf:RDF>
      <cc:Work
         rdf:about="">
        <dc:format>image/svg+xml</dc:format>
        <dc:type
           rdf:resource="http://purl.org/dc/dcmitype/StillImage" />
        <dc:title></dc:title>
      </cc:Work>
    </rdf:RDF>
  </metadata>
  <g
     inkscape:label="Layer 1"
     inkscape:groupmode="layer"
     id="layer1"
     transform="translate(0,-1028.3622)">
    <rect
       style="fill:#eeeeec;fill-opacity:1;stroke:none"
       id="rect4165"
       width="22"
       height="22"
       x="2.0000002"
       y="1030.3619" />
    <path
       inkscape:transform-center-y="-1.309546"
       transform="matrix(1.219616,0,0,0.6984127,11.850752,1034.0844)"
       d="M 28,14 C 17.607695,14 17.607695,14 22.803847,5.0000001 28,-4 28,-4 33.196152,4.9999999 38.392305,14 38.392305,14 28,14 z"
       inkscape:randomized="0"
       inkscape:rounded="1"
       inkscape:flatsided="true"
       sodipodi:arg2="2.6179939"
       sodipodi:arg1="1.5707963"
       sodipodi:r2="3"
       sodipodi:r1="6"
       sodipodi:cy="8"
       sodipodi:cx="28"
       sodipodi:sides="3"
       id="path3897"
       style="fill:#4e9a06;fill-opacity:1;stroke:#2a5703;stroke-width:1.08350861;stroke-linecap:round;stroke-linejoin:round;stroke-miterlimit:4;stroke-opacity:1;stroke-dasharray:none"
       sodipodi:type="star" />
    <path
       style="fill:none;stroke:#2e3436;stroke-width:1px;stroke-linecap:square;stroke-linejoin:miter;stroke-opacity:1"
       d="m 2.5,1030.8622 c 21,0 21,0 21,0"
       id="path4113"
       inkscape:connector-curvature="0" />
    <path
       style="fill:none;stroke:#2e3436;stroke-width:1px;stroke-linecap:square;stroke-linejoin:miter;stroke-opacity:1"
       d="m 13,1039.8622 c 10.5,0 10.5,0 10.5,0"
       id="path4117"
       inkscape:connector-curvature="0" />
    <path
       inkscape:connector-curvature="0"
       id="path4119"
       d="m 13,1033.8622 c 10.5,0 10.5,0 10.5,0"
       style="fill:none;stroke:#2e3436;stroke-width:1px;stroke-linecap:square;stroke-linejoin:miter;stroke-opacity:1" />
    <path
       style="fill:none;stroke:#2e3436;stroke-width:1px;stroke-linecap:square;stroke-linejoin:miter;stroke-opacity:1"
       d="m 13,1042.8622 c 10.5,0 10.5,0 10.5,0"
       id="path4121"
       inkscape:connector-curvature="0" />
    <path
       inkscape:connector-curvature="0"
       id="path4123"
       d="m 2.5,1048.8622 c 21,0 21,0 21,0"
       style="fill:none;stroke:#2e3436;stroke-width:1px;stroke-linecap:square;stroke-linejoin:miter;stroke-opacity:1" />
    <path
       style="fill:none;stroke:#2e3436;stroke-width:1px;stroke-linecap:square;stroke-linejoin:miter;stroke-opacity:1"
       d="m 2.5,1051.8622 c 21,0 21,0 21,0"
       id="path4127"
       inkscape:connector-curvature="0" />
    <rect
       style="color:#000000;fill:#fce94f;stroke:none;stroke-width:0.50000000000000000;stroke-linecap:butt;stroke-linejoin:round;stroke-miterlimit:4;stroke-opacity:1;stroke-dasharray:none;stroke-dashoffset:0;marker:none;visibility:visible;display:inline;overflow:visible;enable-background:accumulate"
       id="rect3124"
       width="22"
       height="3"
       x="2"
       y="7"
       transform="translate(0,1028.3622)" />
    <path
       style="fill:#ffffff;fill-opacity:1;stroke:#888a85;stroke-width:0.99999994;stroke-linecap:round;stroke-linejoin:round;stroke-miterlimit:4;stroke-opacity:1;stroke-dasharray:none"
       d="m 18.5,1037.3622 c 0,-1.2911 -1.5759,-2.5875 -4.7188,-5.1698 -5.1553,-4.2357 -6.0832,-4.8739 -6.25,0.6876 l -6.0312,0 c -0.554,0 -1.00000003,0.3635 -1.00000003,0.815 l 0,7.3344 c 0,0.4515 0.44600003,0.815 1.00000003,0.815 l 6.0312,0 c 0.1668,5.5615 1.0947,4.9233 6.25,0.6876 3.1429,-2.5823 4.7188,-3.8787 4.7188,-5.1698 z"
       id="path3884"
       inkscape:connector-curvature="0" />
    <path
       sodipodi:type="star"
       style="fill:#60b60e;fill-opacity:1;stroke:none"
       id="path4058"
       sodipodi:sides="3"
       sodipodi:cx="28"
       sodipodi:cy="8"
       sodipodi:r1="6"
       sodipodi:r2="3"
       sodipodi:arg1="1.5707963"
       sodipodi:arg2="2.6179939"
       inkscape:flatsided="true"
       inkscape:rounded="1"
       inkscape:randomized="0"
       d="M 28,14 C 17.607695,14 17.607695,14 22.803847,5.0000001 28,-4 28,-4 33.196152,4.9999999 38.392305,14 38.392305,14 28,14 z"
       transform="matrix(0,0.69692343,-0.50793651,0,15.6111,1017.8483)"
       inkscape:transform-center-y="-0.95235263" />
    <rect
       style="color:#000000;fill:#60b60e;fill-opacity:1;stroke:none;stroke-width:0.5;marker:none;visibility:visible;display:inline;overflow:visible;enable-background:accumulate"
       id="rect4060"
       width="6"
       height="8"
       x="1034.3625"
       y="-10.000019"
       transform="matrix(0,1,-1,0,0,0)" />
    <g
       id="g4066"
       style="fill:url(#linearGradient3120);fill-opacity:1;stroke:none"
       transform="matrix(0,1,-1,0,1051.3622,1035.3622)">
      <path
         id="rect4064"
         style="color:#000000;fill:url(#linearGradient3118);fill-opacity:1;stroke-width:0.5;marker:none;visibility:visible;display:inline;overflow:visible;enable-background:accumulate"
         d="m -1,1041.3622 6,0 0,8 -6,0 z m 3,1.5 c -7.2426409,0 -7.2426409,0 -3.6213208,-4.5714 C 2,1033.7194 2,1033.7194 5.62132,1038.2908 c 3.621321,4.5714 3.621321,4.5714 -3.62132,4.5714 z"
         inkscape:connector-curvature="0" />
    </g>
    <g
       id="g4070"
       transform="matrix(0,1,-1,0,1051.3622,1023.3622)">
      <path
         id="rect4074"
         style="color:#000000;fill:url(#linearGradient3116);fill-opacity:1;stroke:none;stroke-width:0.5;marker:none;visibility:visible;display:inline;overflow:visible;enable-background:accumulate"
         d="m 11,1041.3622 6,0 0,8 -6,0 z m 3,1.5 c -7.2426409,0 -7.2426409,0 -3.621321,-4.5714 3.621321,-4.5714 3.621321,-4.5714 7.242641,0 3.621321,4.5714 3.621321,4.5714 -3.62132,4.5714 z"
         inkscape:connector-curvature="0" />
    </g>
    <path
       style="fill:none;stroke:#2e3436;stroke-width:1px;stroke-linecap:square;stroke-linejoin:miter;stroke-opacity:1"
       d="m 2.5,1045.8622 c 21,0 21,0 21,0"
       id="path3122"
       inkscape:connector-curvature="0" />
  </g>
</svg>
