<?xml version="1.0" encoding="UTF-8" standalone="no"?>
<!-- Created with Inkscape (http://www.inkscape.org/) -->

<svg
   xmlns:dc="http://purl.org/dc/elements/1.1/"
   xmlns:cc="http://creativecommons.org/ns#"
   xmlns:rdf="http://www.w3.org/1999/02/22-rdf-syntax-ns#"
   xmlns:svg="http://www.w3.org/2000/svg"
   xmlns="http://www.w3.org/2000/svg"
   xmlns:xlink="http://www.w3.org/1999/xlink"
   xmlns:sodipodi="http://sodipodi.sourceforge.net/DTD/sodipodi-0.dtd"
   xmlns:inkscape="http://www.inkscape.org/namespaces/inkscape"
   width="24"
   height="24"
   id="svg2"
   version="1.1"
   inkscape:version="0.48.2 r9819"
   sodipodi:docname="go-last.svg"
   inkscape:export-filename="go-last.png"
   inkscape:export-xdpi="90"
   inkscape:export-ydpi="90">
  <defs
     id="defs4">
    <linearGradient
       inkscape:collect="always"
       xlink:href="#linearGradient4100"
       id="linearGradient4106"
       x1="12"
       y1="6"
       x2="12"
       y2="14"
       gradientUnits="userSpaceOnUse"
       gradientTransform="translate(0,1028.3622)" />
    <linearGradient
       id="linearGradient4100">
      <stop
         style="stop-color:#ffffff;stop-opacity:0.15753424;"
         offset="0"
         id="stop4102" />
      <stop
         style="stop-color:#ffffff;stop-opacity:0;"
         offset="1"
         id="stop4104" />
    </linearGradient>
    <linearGradient
       inkscape:collect="always"
       xlink:href="#linearGradient4084"
       id="linearGradient4108"
       gradientUnits="userSpaceOnUse"
       x1="11"
       y1="1049.3622"
       x2="11"
       y2="1042.3622"
       gradientTransform="translate(-6,-1.8299802e-5)" />
    <linearGradient
       id="linearGradient4084">
      <stop
         style="stop-color:#000000;stop-opacity:0.15753424;"
         offset="0"
         id="stop4086" />
      <stop
         style="stop-color:#000000;stop-opacity:0;"
         offset="1"
         id="stop4088" />
    </linearGradient>
    <linearGradient
       inkscape:collect="always"
       xlink:href="#linearGradient4084"
       id="linearGradient4095"
       gradientUnits="userSpaceOnUse"
       x1="14"
       y1="21"
       x2="14"
       y2="14"
       gradientTransform="translate(-6,1028.3622)" />
    <linearGradient
       id="linearGradient4131">
      <stop
         style="stop-color:#000000;stop-opacity:0.15753424;"
         offset="0"
         id="stop4133" />
      <stop
         style="stop-color:#000000;stop-opacity:0;"
         offset="1"
         id="stop4135" />
    </linearGradient>
    <linearGradient
       inkscape:collect="always"
       xlink:href="#linearGradient4084"
       id="linearGradient3041"
       gradientUnits="userSpaceOnUse"
       gradientTransform="matrix(1,0,0,-1,-6,1052.3624)"
       x1="14"
       y1="21"
       x2="14"
       y2="14" />
    <linearGradient
       inkscape:collect="always"
       xlink:href="#linearGradient4084"
       id="linearGradient3043"
       gradientUnits="userSpaceOnUse"
       gradientTransform="matrix(1,0,0,-1,-6,2080.7246)"
       x1="11"
       y1="1049.3622"
       x2="11"
       y2="1042.3622" />
    <linearGradient
       inkscape:collect="always"
       xlink:href="#linearGradient4100"
       id="linearGradient3045"
       gradientUnits="userSpaceOnUse"
       gradientTransform="matrix(1,0,0,-1,0,1052.3624)"
       x1="12"
       y1="6"
       x2="12"
       y2="14" />
  </defs>
  <sodipodi:namedview
     id="base"
     pagecolor="#ffffff"
     bordercolor="#666666"
     borderopacity="1.0"
     inkscape:pageopacity="0.0"
     inkscape:pageshadow="2"
     inkscape:zoom="23.291667"
     inkscape:cx="12"
     inkscape:cy="12"
     inkscape:document-units="px"
     inkscape:current-layer="layer1"
     showgrid="true"
     inkscape:window-width="1028"
     inkscape:window-height="728"
     inkscape:window-x="626"
     inkscape:window-y="213"
     inkscape:window-maximized="0">
    <inkscape:grid
       type="xygrid"
       id="grid2985"
       empspacing="4"
       visible="true"
       enabled="true"
       snapvisiblegridlinesonly="true" />
  </sodipodi:namedview>
  <metadata
     id="metadata7">
    <rdf:RDF>
      <cc:Work
         rdf:about="">
        <dc:format>image/svg+xml</dc:format>
        <dc:type
           rdf:resource="http://purl.org/dc/dcmitype/StillImage" />
        <dc:title></dc:title>
      </cc:Work>
    </rdf:RDF>
  </metadata>
  <g
     inkscape:label="Layer 1"
     inkscape:groupmode="layer"
     id="layer1"
     transform="translate(0,-1028.3622)">
    <path
       inkscape:transform-center-y="-1.309546"
       transform="matrix(1.219616,0,0,0.6984127,11.850752,1034.0844)"
       d="M 28,14 C 17.607695,14 17.607695,14 22.803847,5.0000001 28,-4 28,-4 33.196152,4.9999999 38.392305,14 38.392305,14 28,14 z"
       inkscape:randomized="0"
       inkscape:rounded="1"
       inkscape:flatsided="true"
       sodipodi:arg2="2.6179939"
       sodipodi:arg1="1.5707963"
       sodipodi:r2="3"
       sodipodi:r1="6"
       sodipodi:cy="8"
       sodipodi:cx="28"
       sodipodi:sides="3"
       id="path3897"
       style="fill:#4e9a06;fill-opacity:1;stroke:#2a5703;stroke-width:1.08350861;stroke-linecap:round;stroke-linejoin:round;stroke-miterlimit:4;stroke-opacity:1;stroke-dasharray:none"
       sodipodi:type="star" />
    <path
       style="fill:#ffffff;fill-opacity:1;stroke:#888a85;stroke-width:0.99999994;stroke-linecap:round;stroke-linejoin:round;stroke-miterlimit:4;stroke-opacity:1;stroke-dasharray:none"
       d="m 12,1047.8624 c -1.291133,0 -2.5875124,-1.5759 -5.1697769,-4.7188 -4.2357679,-5.1553 -4.8739666,-6.0832 0.6876058,-6.25 l 0,-6.0312 c 0,-0.554 0.3634633,-1 0.8149402,-1 l 7.3344619,0 c 0.451476,0 0.81494,0.446 0.81494,1 l 0,6.0312 c 5.561572,0.1668 4.923374,1.0947 0.687606,6.25 -2.582265,3.1429 -3.878645,4.7188 -5.169777,4.7188 z"
       id="path3884"
       inkscape:connector-curvature="0" />
    <rect
       style="fill:#ffffff;fill-opacity:1;stroke:#888a85;stroke-width:1;stroke-linecap:round;stroke-linejoin:round;stroke-miterlimit:4;stroke-opacity:1;stroke-dasharray:none"
       id="rect3886"
       width="21"
       height="2"
       x="1.5"
       y="-1050.8622"
       rx="1"
       ry="1"
       transform="scale(1,-1)" />
    <path
       sodipodi:type="star"
       style="fill:#60b60e;fill-opacity:1;stroke:none"
       id="path4058"
       sodipodi:sides="3"
       sodipodi:cx="28"
       sodipodi:cy="8"
       sodipodi:r1="6"
       sodipodi:r2="3"
       sodipodi:arg1="1.5707963"
       sodipodi:arg2="2.6179939"
       inkscape:flatsided="true"
       inkscape:rounded="1"
       inkscape:randomized="0"
       d="M 28,14 C 17.607695,14 17.607695,14 22.803847,5.0000001 28,-4 28,-4 33.196152,4.9999999 38.392305,14 38.392305,14 28,14 z"
       transform="matrix(0.69692343,0,0,-0.50793651,-7.513856,1044.9735)"
       inkscape:transform-center-y="-0.95235263" />
    <rect
       style="color:#000000;fill:#60b60e;fill-opacity:1;stroke:none;stroke-width:0.5;marker:none;visibility:visible;display:inline;overflow:visible;enable-background:accumulate"
       id="rect4060"
       width="6"
       height="8"
       x="9"
       y="-1039.3622"
       transform="scale(1,-1)" />
    <g
       id="g4066"
       style="fill:url(#linearGradient3043);fill-opacity:1;stroke:none"
       transform="matrix(1,0,0,-1,10,2080.7246)">
      <path
         id="rect4064"
         style="color:#000000;fill:url(#linearGradient3041);fill-opacity:1;stroke-width:0.5;marker:none;visibility:visible;display:inline;overflow:visible;enable-background:accumulate"
         d="m -1,1041.3622 6,0 0,8 -6,0 z m 3,1.5 c -7.2426409,0 -7.2426409,0 -3.6213208,-4.5714 C 2,1033.7194 2,1033.7194 5.62132,1038.2908 c 3.621321,4.5714 3.621321,4.5714 -3.62132,4.5714 z"
         inkscape:connector-curvature="0" />
    </g>
    <g
       id="g4070"
       transform="matrix(1,0,0,-1,-2,2080.7246)">
      <path
         id="rect4074"
         style="color:#000000;fill:url(#linearGradient3045);fill-opacity:1;stroke:none;stroke-width:0.5;marker:none;visibility:visible;display:inline;overflow:visible;enable-background:accumulate"
         d="m 11,1041.3622 6,0 0,8 -6,0 z m 3,1.5 c -7.2426409,0 -7.2426409,0 -3.621321,-4.5714 3.621321,-4.5714 3.621321,-4.5714 7.242641,0 3.621321,4.5714 3.621321,4.5714 -3.62132,4.5714 z"
         inkscape:connector-curvature="0" />
    </g>
  </g>
</svg>
